…
```r
gapminder %>% 
  filter(country == "Canada" | country == "Rwanda") %>%
  select(country, year, lifeExp) %>% 
  pivot_wider(id_cols        = year, 
              names_from  = country, 
              values_from = lifeExp) %>%
  pivot_longer(cols = c(Canada, Rwanda), 
               names_to = "country", 
               values_to = "lifeExp") 
```

```
## # A tibble: 24 x 3
##     year country lifeExp
##    <int> <chr>     <dbl>
##  1  1952 Canada     68.8
##  2  1952 Rwanda     40  
##  3  1957 Canada     70.0
##  4  1957 Rwanda     41.5
##  5  1962 Canada     71.3
##  6  1962 Rwanda     43  
##  7  1967 Canada     72.1
##  8  1967 Rwanda     44.1
##  9  1972 Canada     72.9
## 10  1972 Rwanda     44.6
## # … with 14 more rows
```
…
```r
gapminder %>% 
  filter(country == "Canada" | country == "Rwanda") %>%
  select(country, year, lifeExp, gdpPercap) %>% 
  pivot_wider(id_cols        = year, 
              names_from  = country,
              names_sep = "_",
              values_from = c(lifeExp, gdpPercap)) %>%
  pivot_longer(cols = -year,
               names_sep = "_",
               names_to = c(".value", "country"))
```

```
## # A tibble: 24 x 4
##     year country lifeExp gdpPercap
##    <int> <chr>     <dbl>     <dbl>
##  1  1952 Canada     68.8    11367.
##  2  1952 Rwanda     40        493.
##  3  1957 Canada     70.0    12490.
##  4  1957 Rwanda     41.5      540.
##  5  1962 Canada     71.3    13462.
##  6  1962 Rwanda     43        597.
##  7  1967 Canada     72.1    16077.
##  8  1967 Rwanda     44.1      511.
##  9  1972 Canada     72.9    18971.
## 10  1972 Rwanda     44.6      591.
## # … with 14 more rows
```
…
## 3.0: Visualize data

Print out unfamiliar datasets to visualize for best analysis.

```r
guest
```

```
## # A tibble: 30 x 7
##    party name  meal_wedding meal_brunch attendance_wedd… attendance_brun…
##    <int> <chr> <chr>        <chr>       <chr>            <chr>           
##  1     1 Somm… PENDING      PENDING     PENDING          PENDING         
##  2     1 Phil… vegetarian   Menu C      CONFIRMED        CONFIRMED       
##  3     1 Blan… chicken      Menu A      CONFIRMED        CONFIRMED       
##  4     1 Emaa… PENDING      PENDING     PENDING          PENDING         
##  5     2 Blai… chicken      Menu C      CONFIRMED        CONFIRMED       
##  6     2 Nige… <NA>         <NA>        CANCELLED        CANCELLED       
##  7     3 Sine… PENDING      PENDING     PENDING          PENDING         
##  8     4 Ayra… vegetarian   Menu B      PENDING          PENDING         
##  9     5 Atla… PENDING      PENDING     PENDING          PENDING         
## 10     5 Denz… fish         Menu B      CONFIRMED        CONFIRMED       
## # … with 20 more rows, and 1 more variable: attendance_golf <chr>
```
…
```r
email_separate <- email %>% 
  separate_rows(guest, sep = ", ")
```
##3.1-2: Add column for email to guestlist data

Join new dataset held in new variable to "guest" dataset.

```r
guest %>%
  left_join(email_separate, c("name" = "guest")) 
```

```
## # A tibble: 30 x 8
##    party name  meal_wedding meal_brunch attendance_wedd… attendance_brun…
##    <int> <chr> <chr>        <chr>       <chr>            <chr>           
##  1     1 Somm… PENDING      PENDING     PENDING          PENDING         
##  2     1 Phil… vegetarian   Menu C      CONFIRMED        CONFIRMED       
##  3     1 Blan… chicken      Menu A      CONFIRMED        CONFIRMED       
##  4     1 Emaa… PENDING      PENDING     PENDING          PENDING         
##  5     2 Blai… chicken      Menu C      CONFIRMED        CONFIRMED       
##  6     2 Nige… <NA>         <NA>        CANCELLED        CANCELLED       
##  7     3 Sine… PENDING      PENDING     PENDING          PENDING         
##  8     4 Ayra… vegetarian   Menu B      PENDING          PENDING         
##  9     5 Atla… PENDING      PENDING     PENDING          PENDING         
## 10     5 Denz… fish         Menu B      CONFIRMED        CONFIRMED       
## # … with 20 more rows, and 2 more variables: attendance_golf <chr>,
## #   email <chr>
```
…
## 3.3: Create full guestlist

Join data for all guests whether or not the have an email associated with them (using full_join() allows for "N/A" observations to be included)

```r
guest %>% 
  full_join(email_separate, c("name" = "guest")) 
```

```
## # A tibble: 33 x 8
##    party name  meal_wedding meal_brunch attendance_wedd… attendance_brun…
##    <int> <chr> <chr>        <chr>       <chr>            <chr>           
##  1     1 Somm… PENDING      PENDING     PENDING          PENDING         
##  2     1 Phil… vegetarian   Menu C      CONFIRMED        CONFIRMED       
##  3     1 Blan… chicken      Menu A      CONFIRMED        CONFIRMED       
##  4     1 Emaa… PENDING      PENDING     PENDING          PENDING         
##  5     2 Blai… chicken      Menu C      CONFIRMED        CONFIRMED       
##  6     2 Nige… <NA>         <NA>        CANCELLED        CANCELLED       
##  7     3 Sine… PENDING      PENDING     PENDING          PENDING         
##  8     4 Ayra… vegetarian   Menu B      PENDING          PENDING         
##  9     5 Atla… PENDING      PENDING     PENDING          PENDING         
## 10     5 Denz… fish         Menu B      CONFIRMED        CONFIRMED       
## # … with 23 more rows, and 2 more variables: attendance_golf <chr>,
## #   email <chr>
```
